{
    "API_URL": "http://localhost:8000/api/",
    "VUE_ROUTER_MODE": "hash",
    "VUEX_STRICT_MODE": true,
    "VAR_CATEGORY": {
        "IS_FORMATTED": false,
        "USE_SUB_CATEGORIES": false
    }
}